{
  "$schema": "http://json-schema.org/draft-07/schema#",
  "type": "object",
  "properties": {
    "origin": {
      "type": "string",
      "format": "uri"
    },
    "actor": {
      "type": "array",
      "items": [
        {
          "type": "object",
          "properties": {
            "preferredUsername": {
              "type": "string"
            },
            "name": {
              "type": "string"
            },
            "me": {
              "type": "string",
              "format": "uri"
            }
          },
          "required": [
            "preferredUsername",
            "name",
            "me"
          ]
        }
      ]
    },
    "ttl": {
      "type": "number"
    }
  },
  "required": [
    "origin",
    "actor",
    "ttl"
  ]
}
